<?xml version="1.0" encoding="utf-8"?>
<!-- Generator: Adobe Illustrator 27.1.1, SVG Export Plug-In . SVG Version: 6.00 Build 0)  -->
<svg version="1.1" id="Laag_1" xmlns="http://www.w3.org/2000/svg" xmlns:xlink="http://www.w3.org/1999/xlink" x="0px" y="0px"
	 viewBox="0 0 1920 1080" style="enable-background:new 0 0 1920 1080;" xml:space="preserve">
<style type="text/css">
	.st0{fill:#1FE0E5;}
	.st1{fill:#28303D;}
	.st2{fill:none;}
	.st3{fill:#FCFCFC;}
	.st4{fill:#FFFFFF;}
	.st5{font-family:'MyriadPro-Regular';}
	.st6{font-size:30.3463px;}
	.st7{fill:none;stroke:#231F20;stroke-width:0.25;stroke-miterlimit:10;}
	.st8{fill:none;stroke:#231F20;stroke-width:0.5;stroke-miterlimit:10;}
</style>
<g>
	<g>
		<g>
			<path class="st0" d="M604.79,447.64c0-4.99,4.06-9.24,9.24-9.24h103.7c4.99,0,9.23,4.25,9.23,9.23c0,5.17-4.25,9.24-9.23,9.24
				h-103.7C608.85,456.87,604.79,452.81,604.79,447.64z"/>
		</g>
	</g>
	<g>
		<g>
			<path class="st1" d="M609.33,640.36h20.06v-15.89h4.34v39.11h-4.34v-19.12h-20.06v19.12h-4.34v-39.11h4.34V640.36z"/>
			<path class="st1" d="M677.12,652.55h-16.65l-4.69,11.02h-4.81l18-40.99l17.53,40.99h-4.81L677.12,652.55z M675.42,648.45
				l-6.57-15.66l-6.69,15.66H675.42z"/>
			<path class="st1" d="M703.74,663.58v-40.75l30.49,31.96v-30.32h4.34v40.87l-30.49-31.96v30.2H703.74z"/>
			<path class="st1" d="M760.39,624.47h7.98c3.93,0,9.5,0.41,14.43,4.57c3.58,2.99,6.68,7.98,6.68,15.01
				c0,8.21-4.05,12.61-6.86,15.01c-3.58,3.05-7.33,4.52-14.31,4.52h-7.92V624.47z M764.73,659.47h3.81c3.11,0,7.39-0.35,11.2-3.52
				c2.93-2.46,5.28-6.33,5.28-11.9c0-9.38-6.57-15.48-16.48-15.48h-3.81V659.47z"/>
			<path class="st1" d="M813.52,624.47v39.11h-4.34v-39.11H813.52z"/>
			<path class="st1" d="M855.51,643.93h16.3v0.94c0,4.34-1.29,9.03-3.75,12.37c-1.17,1.58-5.57,7.04-14.54,7.04
				c-11.61,0-20.29-8.85-20.29-20.23s8.74-20.23,20.41-20.23c3.75,0,8.15,0.94,11.96,3.87c1.76,1.35,3.4,3.11,4.52,4.63l-3.23,2.93
				c-1.11-1.58-2.4-2.99-3.69-4.05c-1.88-1.52-4.81-3.28-9.5-3.28c-9.44,0-16.01,7.1-16.01,16.18c0,10.67,8.5,16.07,15.89,16.07
				c5.22,0,9.73-2.64,11.96-6.57c0.7-1.23,1.47-3.11,1.58-5.57h-11.61V643.93z"/>
			<path class="st1" d="M911.81,628.57h-15.95v11.61h15.48v4.1h-15.48v15.19h15.95v4.1h-20.29v-39.11h20.29V628.57z"/>
			<path class="st1" d="M957.14,624.47l10.32,29.32l12.26-31.31l11.61,31.31l11.43-29.32h4.81l-16.42,41.17l-11.49-31.31
				l-12.31,31.31l-15.01-41.17H957.14z"/>
			<path class="st1" d="M1045.1,628.57h-15.95v11.61h15.48v4.1h-15.48v15.19h15.95v4.1h-20.29v-39.11h20.29V628.57z"/>
			<path class="st1" d="M1071.85,624.47c2.17,0,6.1,0.18,8.97,2.46c1.23,0.94,3.52,3.34,3.52,8.09c0,1.93-0.41,5.34-3.87,7.68
				c5.45,1.35,7.45,6.1,7.45,9.85s-1.88,6.8-3.99,8.44c-3.11,2.46-6.68,2.58-9.38,2.58h-9.73v-39.11H1071.85z M1069.15,641.65h3.28
				c2.29,0,7.68-0.47,7.68-6.51c0-6.45-6.33-6.57-7.56-6.57h-3.4V641.65z M1069.15,659.47h4.98c2.52,0,4.98-0.18,6.86-1.64
				c1.53-1.11,2.58-3.05,2.58-5.4c0-3.11-1.82-4.93-3.34-5.75c-1.47-0.82-3.52-1.17-6.63-1.17h-4.46V659.47z"/>
			<path class="st1" d="M1125.09,632.21c-0.53-1.06-1.41-2.23-2.29-2.93c-0.76-0.59-2.17-1.35-4.4-1.35c-3.87,0-6.57,2.4-6.57,6.04
				c0,1.53,0.41,2.4,1.47,3.4c1.17,1.17,2.64,1.82,4.1,2.46l3.75,1.64c2.29,1,4.4,2.05,6.04,3.69c1.99,1.99,2.81,4.28,2.81,7.1
				c0,7.21-5.34,12.02-12.37,12.02c-2.58,0-5.81-0.53-8.5-3.17c-1.94-1.88-3.11-4.57-3.64-6.92l4.22-1.17
				c0.29,2.05,1.23,3.81,2.35,4.98c1.7,1.7,3.64,2.17,5.63,2.17c5.34,0,7.86-3.81,7.86-7.74c0-1.76-0.53-3.28-1.94-4.57
				c-1.11-1.06-2.64-1.76-4.69-2.7l-3.52-1.64c-1.52-0.7-3.46-1.52-5.22-3.23c-1.7-1.64-2.7-3.46-2.7-6.39
				c0-6.04,4.63-10.09,10.97-10.09c2.4,0,4.34,0.47,6.27,1.76c1.58,1.06,2.93,2.64,3.81,4.34L1125.09,632.21z"/>
			<path class="st1" d="M1154.07,624.47v39.11h-4.34v-39.11H1154.07z"/>
			<path class="st1" d="M1185.5,628.57v35.01h-4.34v-35.01h-9.5v-4.1H1195v4.1H1185.5z"/>
			<path class="st1" d="M1232.88,628.57h-15.95v11.61h15.48v4.1h-15.48v15.19h15.95v4.1h-20.29v-39.11h20.29V628.57z"/>
			<path class="st1" d="M1270.06,632.21c-0.53-1.06-1.41-2.23-2.29-2.93c-0.76-0.59-2.17-1.35-4.4-1.35c-3.87,0-6.57,2.4-6.57,6.04
				c0,1.53,0.41,2.4,1.47,3.4c1.17,1.17,2.64,1.82,4.1,2.46l3.75,1.64c2.29,1,4.4,2.05,6.04,3.69c1.99,1.99,2.81,4.28,2.81,7.1
				c0,7.21-5.34,12.02-12.37,12.02c-2.58,0-5.81-0.53-8.5-3.17c-1.94-1.88-3.11-4.57-3.64-6.92l4.22-1.17
				c0.29,2.05,1.23,3.81,2.35,4.98c1.7,1.7,3.64,2.17,5.63,2.17c5.34,0,7.86-3.81,7.86-7.74c0-1.76-0.53-3.28-1.94-4.57
				c-1.11-1.06-2.64-1.76-4.69-2.7l-3.52-1.64c-1.52-0.7-3.46-1.52-5.22-3.23c-1.7-1.64-2.7-3.46-2.7-6.39
				c0-6.04,4.63-10.09,10.97-10.09c2.4,0,4.34,0.47,6.27,1.76c1.58,1.06,2.93,2.64,3.81,4.34L1270.06,632.21z"/>
		</g>
	</g>
	<path class="st1" d="M717.64,510.4c-1.21,0-2.38,0.25-3.45,0.7c-3.35,1.4-5.79,4.76-5.79,8.53v5.02c0,3.69,0,14.77-5.36,24.75
		c-2.76,5.17-6.83,9.23-11.82,12.19c-6.46,3.69-14.95,5.72-25.3,5.72c-10.34,0-18.84-2.03-25.3-5.72
		c-5.17-2.96-9.05-7.02-12.01-12.38c-5.35-9.79-5.35-20.87-5.35-24.56v-41.02c0-3.77-2.33-7.13-5.71-8.53
		c-1.08-0.45-2.27-0.7-3.53-0.7c-4.98,0-9.23,4.25-9.23,9.23v41.02c0,4.8,0,19.39,7.57,33.43c4.62,8.31,10.9,14.77,19.02,19.39
		c9.42,5.54,21.06,8.31,34.54,8.31c31.77,0,46.54-14.96,53.38-27.7c7.57-13.85,7.57-28.63,7.57-33.43v-5.02
		C726.87,514.65,722.81,510.4,717.64,510.4z"/>
	<path class="st1" d="M810.16,585.78c-40.08,0-51.34-18.84-52.64-21.05c-2.4-4.43-0.74-10.16,3.69-12.56
		c4.43-2.4,9.97-0.74,12.38,3.51c0.37,0.37,2.22,2.96,7.02,5.54c9.23,4.99,21.24,6.09,29.55,6.09c12.19,0,21.42-2.59,26.6-7.39
		c4.06-3.69,4.99-8.31,4.99-11.45c0-6.83-2.03-12-6.46-16.25c-5.73-5.73-15.7-9.97-29.74-12.74c-10.16-2.22-19.02-5.73-26.04-10.53
		c-5.91-4.06-10.53-9.05-13.85-14.96c-5.36-9.23-5.36-17.55-5.36-19.76c0-9.79,4.62-19.58,12.56-26.6
		c3.88-3.51,8.68-6.28,14.04-8.31c5.54-2.03,11.64-2.96,17.92-2.96c36.01,0,46.54,16.99,47.65,19.02c2.4,4.43,0.92,10.16-3.51,12.56
		c-4.43,2.4-9.97,0.92-12.37-3.33c-0.37-0.37-2.03-2.4-6.09-4.8c-4.43-2.22-12.37-4.99-25.67-4.99c-10.16,0-16.25,3.51-19.76,6.65
		c-3.88,3.51-6.28,8.31-6.28,13.11v0.37c0,0.74,0,5.36,3.33,10.71c2.03,3.32,4.8,6.09,8.5,8.5c4.8,3.14,11.08,5.54,18.65,7.2
		c17.73,3.51,30.47,9.24,38.97,17.55c7.94,7.76,12,17.73,12,29.55c0,9.6-3.88,18.47-10.9,25.12
		C840.64,581.72,827.34,585.78,810.16,585.78z"/>
	<path class="st1" d="M995.04,447.82c0,5.17-4.06,9.23-9.23,9.23h-77.57v46.36h66.3c4.99,0,9.23,4.25,9.23,9.23
		c0,5.17-4.25,9.23-9.23,9.23h-66.3v52.82c0,4.99-4.06,9.23-9.23,9.23c-5.17,0-9.23-4.25-9.23-9.23V447.82
		c0-4.99,4.06-9.23,9.23-9.23h86.81C990.97,438.59,995.04,442.83,995.04,447.82z"/>
	<path class="st1" d="M1085.72,585.78c-13.48,0-25.12-2.77-34.54-8.31c-8.13-4.62-14.41-11.08-19.02-19.39
		c-7.57-14.04-7.57-28.63-7.57-33.43v-77.02c0-4.99,4.25-9.23,9.23-9.23c5.17,0,9.23,4.25,9.23,9.23v77.02
		c0,3.69,0,14.78,5.36,24.56c2.96,5.36,6.83,9.42,12,12.37c6.46,3.69,14.96,5.73,25.3,5.73c10.34,0,18.84-2.03,25.3-5.73
		c4.99-2.96,9.05-7.02,11.82-12.19c5.36-9.97,5.36-21.05,5.36-24.75v-77.02c0-4.99,4.25-9.23,9.24-9.23c5.17,0,9.23,4.25,9.23,9.23
		v77.02c0,4.8,0,19.58-7.57,33.43C1132.26,570.82,1117.49,585.78,1085.72,585.78z"/>
	<path class="st1" d="M1265.98,583.57h-80.53c-4.99,0-9.24-4.06-9.24-9.23v-126.7c0-5.17,4.25-9.23,9.24-9.23
		c5.17,0,9.23,4.06,9.23,9.23V565.1h71.29c5.17,0,9.24,4.06,9.24,9.24C1275.21,579.51,1271.15,583.57,1265.98,583.57z"/>
	<path class="st0" d="M656.79,517.13V483.6c0-4.99,4.06-9.24,9.23-9.24h51.7c5.17,0,9.23,4.25,9.23,9.24c0,5.17-4.06,9.23-9.23,9.23
		h-42.46v24.29c0,5.17-4.06,9.24-9.24,9.24C660.85,526.36,656.79,522.3,656.79,517.13z"/>
</g>
<text transform="matrix(1 0 0 1 1263.0078 356.1484)" class="st5 st6">font: aquatico </text>
<text transform="matrix(1 0 0 1 1111.0078 763.1484)" class="st5 st6">font: futura pt book</text>
<text transform="matrix(1 0 0 1 538.8677 768.8802)" class="st5 st6">#28303d </text>
<text transform="matrix(1 0 0 1 538.8677 361.8802)" class="st5 st6">#1fe0e5</text>
<line class="st7" x1="1236" y1="439" x2="1330" y2="372"/>
<line class="st8" x1="1164" y1="677" x2="1195" y2="729"/>
<line class="st8" x1="619.5" y1="375.5" x2="640.5" y2="429.5"/>
<line class="st8" x1="580.5" y1="730.5" x2="604.5" y2="677.5"/>
</svg>
